 INFO [2017-01-08 00:02:49,816] ({Thread-13} AbstractValidatingSessionManager.java[validateSessions]:271) - Validating all active sessions...
 INFO [2017-01-08 00:02:49,816] ({Thread-13} AbstractValidatingSessionManager.java[validateSessions]:304) - Finished session validation.  No sessions were stopped.
 INFO [2017-01-08 00:12:36,250] ({qtp747464370-92} NotebookServer.java[onClose]:227) - Closed connection to 127.0.0.1 : 41122. (1001) null
 WARN [2017-01-08 00:12:36,848] ({qtp747464370-13} SecurityRestApi.java[ticket]:86) - {"status":"OK","message":"","body":{"principal":"anonymous","ticket":"anonymous","roles":"[]"}}
 INFO [2017-01-08 00:12:36,883] ({qtp747464370-14} NotebookServer.java[onOpen]:97) - New connection from 127.0.0.1 : 41402
 INFO [2017-01-08 00:12:37,043] ({qtp747464370-13} NotebookServer.java[sendNote]:433) - New operation from 127.0.0.1 : 41402 : anonymous : GET_NOTE : 2C7K6FHJ9
 INFO [2017-01-08 00:12:43,778] ({pool-1-thread-10} SchedulerFactory.java[jobStarted]:131) - Job paragraph_1483817631672_1964397806 started by scheduler org.apache.zeppelin.interpreter.remote.RemoteInterpretershared_session1661130998
 INFO [2017-01-08 00:12:43,780] ({pool-1-thread-10} Paragraph.java[jobRun]:252) - run paragraph 20170107-203351_695633006 using null org.apache.zeppelin.interpreter.LazyOpenInterpreter@4dbadbdd
 INFO [2017-01-08 00:12:44,757] ({pool-1-thread-10} NotebookServer.java[afterStatusChange]:1150) - Job 20170107-203351_695633006 is finished
 INFO [2017-01-08 00:12:44,761] ({pool-1-thread-10} SchedulerFactory.java[jobFinished]:137) - Job paragraph_1483817631672_1964397806 finished by scheduler org.apache.zeppelin.interpreter.remote.RemoteInterpretershared_session1661130998
 INFO [2017-01-08 00:12:47,046] ({pool-1-thread-6} SchedulerFactory.java[jobStarted]:131) - Job paragraph_1483817667664_1849034432 started by scheduler org.apache.zeppelin.interpreter.remote.RemoteInterpretershared_session1661130998
 INFO [2017-01-08 00:12:47,046] ({pool-1-thread-6} Paragraph.java[jobRun]:252) - run paragraph 20170107-203427_817953167 using sql org.apache.zeppelin.interpreter.LazyOpenInterpreter@4ec5d3c6
 INFO [2017-01-08 00:12:47,276] ({pool-1-thread-6} NotebookServer.java[afterStatusChange]:1150) - Job 20170107-203427_817953167 is finished
 INFO [2017-01-08 00:12:47,298] ({pool-1-thread-6} SchedulerFactory.java[jobFinished]:137) - Job paragraph_1483817667664_1849034432 finished by scheduler org.apache.zeppelin.interpreter.remote.RemoteInterpretershared_session1661130998
 INFO [2017-01-08 00:12:55,511] ({pool-1-thread-11} SchedulerFactory.java[jobStarted]:131) - Job paragraph_1483817631672_1964397806 started by scheduler org.apache.zeppelin.interpreter.remote.RemoteInterpretershared_session1661130998
 INFO [2017-01-08 00:12:55,511] ({pool-1-thread-11} Paragraph.java[jobRun]:252) - run paragraph 20170107-203351_695633006 using null org.apache.zeppelin.interpreter.LazyOpenInterpreter@4dbadbdd
 INFO [2017-01-08 00:12:56,185] ({pool-1-thread-11} NotebookServer.java[afterStatusChange]:1150) - Job 20170107-203351_695633006 is finished
 INFO [2017-01-08 00:12:56,191] ({pool-1-thread-11} SchedulerFactory.java[jobFinished]:137) - Job paragraph_1483817631672_1964397806 finished by scheduler org.apache.zeppelin.interpreter.remote.RemoteInterpretershared_session1661130998
 INFO [2017-01-08 00:12:59,110] ({pool-1-thread-4} SchedulerFactory.java[jobStarted]:131) - Job paragraph_1483817667664_1849034432 started by scheduler org.apache.zeppelin.interpreter.remote.RemoteInterpretershared_session1661130998
 INFO [2017-01-08 00:12:59,111] ({pool-1-thread-4} Paragraph.java[jobRun]:252) - run paragraph 20170107-203427_817953167 using sql org.apache.zeppelin.interpreter.LazyOpenInterpreter@4ec5d3c6
 INFO [2017-01-08 00:12:59,277] ({pool-1-thread-4} NotebookServer.java[afterStatusChange]:1150) - Job 20170107-203427_817953167 is finished
 INFO [2017-01-08 00:12:59,290] ({pool-1-thread-4} SchedulerFactory.java[jobFinished]:137) - Job paragraph_1483817667664_1849034432 finished by scheduler org.apache.zeppelin.interpreter.remote.RemoteInterpretershared_session1661130998
 INFO [2017-01-08 00:25:34,582] ({pool-1-thread-12} SchedulerFactory.java[jobStarted]:131) - Job paragraph_1483817631672_1964397806 started by scheduler org.apache.zeppelin.interpreter.remote.RemoteInterpretershared_session1661130998
 INFO [2017-01-08 00:25:34,582] ({pool-1-thread-12} Paragraph.java[jobRun]:252) - run paragraph 20170107-203351_695633006 using null org.apache.zeppelin.interpreter.LazyOpenInterpreter@4dbadbdd
 INFO [2017-01-08 00:25:35,376] ({pool-1-thread-12} NotebookServer.java[afterStatusChange]:1150) - Job 20170107-203351_695633006 is finished
 INFO [2017-01-08 00:25:35,380] ({pool-1-thread-12} SchedulerFactory.java[jobFinished]:137) - Job paragraph_1483817631672_1964397806 finished by scheduler org.apache.zeppelin.interpreter.remote.RemoteInterpretershared_session1661130998
 INFO [2017-01-08 00:25:36,552] ({pool-1-thread-7} SchedulerFactory.java[jobStarted]:131) - Job paragraph_1483817667664_1849034432 started by scheduler org.apache.zeppelin.interpreter.remote.RemoteInterpretershared_session1661130998
 INFO [2017-01-08 00:25:36,553] ({pool-1-thread-7} Paragraph.java[jobRun]:252) - run paragraph 20170107-203427_817953167 using sql org.apache.zeppelin.interpreter.LazyOpenInterpreter@4ec5d3c6
 INFO [2017-01-08 00:25:36,682] ({pool-1-thread-7} NotebookServer.java[afterStatusChange]:1150) - Job 20170107-203427_817953167 is finished
 INFO [2017-01-08 00:25:36,704] ({pool-1-thread-7} SchedulerFactory.java[jobFinished]:137) - Job paragraph_1483817667664_1849034432 finished by scheduler org.apache.zeppelin.interpreter.remote.RemoteInterpretershared_session1661130998
 INFO [2017-01-08 00:26:58,477] ({qtp747464370-91} NotebookServer.java[onClose]:227) - Closed connection to 127.0.0.1 : 41402. (1001) null
 INFO [2017-01-08 00:26:58,880] ({Thread-12} ZeppelinServer.java[run]:125) - Shutting down Zeppelin Server ... 
 INFO [2017-01-08 00:27:02,245] ({Thread-12} AbstractConnector.java[doStop]:306) - Stopped ServerConnector@178dd68f{HTTP/1.1}{0.0.0.0:8090}
 INFO [2017-01-08 00:27:03,055] ({Thread-12} ContextHandler.java[log]:2052) - Cleaning up Shiro Environment
 INFO [2017-01-08 00:27:03,055] ({Thread-12} AbstractValidatingSessionManager.java[disableSessionValidation]:246) - Disabled session validation scheduler.
 INFO [2017-01-08 00:27:03,056] ({Thread-12} ContextHandler.java[doStop]:865) - Stopped o.e.j.w.WebAppContext@527e5409{/,file:/home/ricardo/sibd_rnd/visualization/zeppelin/webapps/webapp/,UNAVAILABLE}{/home/ricardo/sibd_rnd/visualization/zeppelin/zeppelin-web-0.6.2.war}
 INFO [2017-01-08 00:27:03,554] ({Thread-62} InterpreterGroup.java[close]:141) - Close interpreter group 2C52X23A3:shared_process
 INFO [2017-01-08 00:27:03,554] ({Thread-61} InterpreterGroup.java[close]:141) - Close interpreter group 2C7KBFPNG:shared_process
 INFO [2017-01-08 00:27:03,555] ({Thread-65} InterpreterGroup.java[close]:141) - Close interpreter group 2C8GG9HPV:shared_process
 INFO [2017-01-08 00:27:03,555] ({Thread-62} InterpreterGroup.java[destroy]:205) - Destroy interpreter group 2C52X23A3:shared_process
 INFO [2017-01-08 00:27:03,554] ({Thread-63} InterpreterGroup.java[close]:141) - Close interpreter group 2C8WUZYBP:shared_process
 INFO [2017-01-08 00:27:03,555] ({Thread-68} InterpreterGroup.java[close]:141) - Close interpreter group 2C6E58T4S:shared_process
 INFO [2017-01-08 00:27:03,555] ({Thread-64} InterpreterGroup.java[close]:141) - Close interpreter group 2C7HP3TK6:shared_process
 INFO [2017-01-08 00:27:03,555] ({Thread-64} InterpreterGroup.java[destroy]:205) - Destroy interpreter group 2C7HP3TK6:shared_process
 INFO [2017-01-08 00:27:03,555] ({Thread-69} InterpreterGroup.java[close]:141) - Close interpreter group 2C7UBBPZZ:shared_process
 INFO [2017-01-08 00:27:03,555] ({Thread-68} InterpreterGroup.java[destroy]:205) - Destroy interpreter group 2C6E58T4S:shared_process
 INFO [2017-01-08 00:27:03,555] ({Thread-63} InterpreterGroup.java[destroy]:205) - Destroy interpreter group 2C8WUZYBP:shared_process
 INFO [2017-01-08 00:27:03,555] ({Thread-67} InterpreterGroup.java[close]:141) - Close interpreter group 2C5Z49Q1H:shared_process
 INFO [2017-01-08 00:27:03,555] ({Thread-65} InterpreterGroup.java[destroy]:205) - Destroy interpreter group 2C8GG9HPV:shared_process
 INFO [2017-01-08 00:27:03,555] ({Thread-66} InterpreterGroup.java[close]:141) - Close interpreter group 2C84RDMA4:shared_process
 INFO [2017-01-08 00:27:03,555] ({Thread-61} InterpreterGroup.java[destroy]:205) - Destroy interpreter group 2C7KBFPNG:shared_process
 INFO [2017-01-08 00:27:03,555] ({Thread-74} InterpreterGroup.java[close]:141) - Close interpreter group 2C73FVPAC:shared_process
 INFO [2017-01-08 00:27:03,555] ({Thread-66} InterpreterGroup.java[destroy]:205) - Destroy interpreter group 2C84RDMA4:shared_process
 INFO [2017-01-08 00:27:03,555] ({Thread-76} InterpreterGroup.java[close]:141) - Close interpreter group 2C7ZKCCJB:shared_process
 INFO [2017-01-08 00:27:03,555] ({Thread-73} InterpreterGroup.java[close]:141) - Close interpreter group 2C8MVKTAB:shared_process
 INFO [2017-01-08 00:27:03,555] ({Thread-72} InterpreterGroup.java[close]:141) - Close interpreter group 2C8RNNHNA:shared_process
 INFO [2017-01-08 00:27:03,555] ({Thread-71} InterpreterGroup.java[close]:141) - Close interpreter group 2C8R1QDSV:shared_process
 INFO [2017-01-08 00:27:03,555] ({Thread-70} InterpreterGroup.java[close]:141) - Close interpreter group 2C5QR1RGY:shared_process
 INFO [2017-01-08 00:27:03,555] ({Thread-69} InterpreterGroup.java[destroy]:205) - Destroy interpreter group 2C7UBBPZZ:shared_process
 INFO [2017-01-08 00:27:03,556] ({Thread-70} InterpreterGroup.java[destroy]:205) - Destroy interpreter group 2C5QR1RGY:shared_process
 INFO [2017-01-08 00:27:03,556] ({Thread-71} InterpreterGroup.java[destroy]:205) - Destroy interpreter group 2C8R1QDSV:shared_process
 INFO [2017-01-08 00:27:03,555] ({Thread-72} InterpreterGroup.java[destroy]:205) - Destroy interpreter group 2C8RNNHNA:shared_process
 INFO [2017-01-08 00:27:03,555] ({Thread-73} InterpreterGroup.java[destroy]:205) - Destroy interpreter group 2C8MVKTAB:shared_process
 INFO [2017-01-08 00:27:03,556] ({Thread-78} InterpreterGroup.java[close]:141) - Close interpreter group 2C812JJD3:shared_process
 INFO [2017-01-08 00:27:03,555] ({Thread-76} InterpreterGroup.java[destroy]:205) - Destroy interpreter group 2C7ZKCCJB:shared_process
 INFO [2017-01-08 00:27:03,555] ({Thread-74} InterpreterGroup.java[destroy]:205) - Destroy interpreter group 2C73FVPAC:shared_process
 INFO [2017-01-08 00:27:03,556] ({Thread-78} InterpreterGroup.java[destroy]:205) - Destroy interpreter group 2C812JJD3:shared_process
 INFO [2017-01-08 00:27:03,556] ({Thread-77} InterpreterGroup.java[close]:141) - Close interpreter group 2C5977X47:shared_process
 INFO [2017-01-08 00:27:03,556] ({Thread-77} InterpreterGroup.java[destroy]:205) - Destroy interpreter group 2C5977X47:shared_process
 INFO [2017-01-08 00:27:03,556] ({Thread-79} InterpreterGroup.java[close]:141) - Close interpreter group 2C4YBGVGZ:shared_process
 INFO [2017-01-08 00:27:03,557] ({Thread-79} InterpreterGroup.java[destroy]:205) - Destroy interpreter group 2C4YBGVGZ:shared_process
 INFO [2017-01-08 00:27:03,993] ({Thread-67} InterpreterGroup.java[destroy]:205) - Destroy interpreter group 2C5Z49Q1H:shared_process
 INFO [2017-01-08 00:27:03,994] ({Thread-67} RemoteInterpreterProcess.java[dereference]:220) - shutdown interpreter process
 INFO [2017-01-08 00:27:04,760] ({Thread-67} RemoteInterpreterProcess.java[dereference]:230) - Exception in RemoteInterpreterProcess while synchronized dereference, can safely ignore exception while client.shutdown() may terminates remote process
ERROR [2017-01-08 00:27:04,864] ({Thread-14} RemoteInterpreterEventPoller.java[run]:88) - Can't get RemoteInterpreterEvent
org.apache.thrift.transport.TTransportException
	at org.apache.thrift.transport.TIOStreamTransport.read(TIOStreamTransport.java:132)
	at org.apache.thrift.transport.TTransport.readAll(TTransport.java:86)
	at org.apache.thrift.protocol.TBinaryProtocol.readAll(TBinaryProtocol.java:429)
	at org.apache.thrift.protocol.TBinaryProtocol.readI32(TBinaryProtocol.java:318)
	at org.apache.thrift.protocol.TBinaryProtocol.readMessageBegin(TBinaryProtocol.java:219)
	at org.apache.thrift.TServiceClient.receiveBase(TServiceClient.java:69)
	at org.apache.zeppelin.interpreter.thrift.RemoteInterpreterService$Client.recv_getEvent(RemoteInterpreterService.java:411)
	at org.apache.zeppelin.interpreter.thrift.RemoteInterpreterService$Client.getEvent(RemoteInterpreterService.java:399)
	at org.apache.zeppelin.interpreter.remote.RemoteInterpreterEventPoller.run(RemoteInterpreterEventPoller.java:85)
 INFO [2017-01-08 00:27:05,563] ({Exec Default Executor} RemoteInterpreterProcess.java[onProcessFailed]:288) - Interpreter process failed {}
org.apache.commons.exec.ExecuteException: Process exited with an error: 143 (Exit value: 143)
	at org.apache.commons.exec.DefaultExecutor.executeInternal(DefaultExecutor.java:404)
	at org.apache.commons.exec.DefaultExecutor.access$200(DefaultExecutor.java:48)
	at org.apache.commons.exec.DefaultExecutor$1.run(DefaultExecutor.java:200)
	at java.lang.Thread.run(Thread.java:745)
 INFO [2017-01-08 00:27:05,760] ({Thread-67} RemoteInterpreterProcess.java[dereference]:267) - Remote process terminated
 INFO [2017-01-08 00:27:05,761] ({Thread-12} NotebookRepoSync.java[close]:351) - Closing all notebook storages
 INFO [2017-01-08 00:27:05,761] ({Thread-12} ZeppelinServer.java[run]:133) - Bye
 INFO [2017-01-08 15:11:08,460] ({main} ZeppelinConfiguration.java[create]:98) - Load configuration from file:/home/ricardo/sibd_rnd/visualization/zeppelin/conf/zeppelin-site.xml
 INFO [2017-01-08 15:11:08,583] ({main} Log.java[initialized]:186) - Logging initialized @926ms
 INFO [2017-01-08 15:11:08,648] ({main} ZeppelinServer.java[setupWebAppContext]:266) - ZeppelinServer Webapp path: /home/ricardo/sibd_rnd/visualization/zeppelin/webapps
 INFO [2017-01-08 15:11:08,996] ({main} ZeppelinServer.java[main]:114) - Starting zeppelin server
 INFO [2017-01-08 15:11:08,998] ({main} Server.java[doStart]:327) - jetty-9.2.15.v20160210
 INFO [2017-01-08 15:11:09,127] ({main} StandardDescriptorProcessor.java[visitServlet]:297) - NO JSP Support for /, did not find org.eclipse.jetty.jsp.JettyJspServlet
 INFO [2017-01-08 15:11:09,144] ({main} ContextHandler.java[log]:2052) - Initializing Shiro environment
 INFO [2017-01-08 15:11:09,146] ({main} EnvironmentLoader.java[initEnvironment]:128) - Starting Shiro environment initialization.
 INFO [2017-01-08 15:11:09,195] ({main} EnvironmentLoader.java[initEnvironment]:141) - Shiro environment initialized in 48 ms.
ERROR [2017-01-08 15:11:09,564] ({main} Interpreter.java[register]:315) - Static initialization is deprecated. You should change it to use interpreter-setting.json in your jar or interpreter/{interpreter}/interpreter-setting.json
 INFO [2017-01-08 15:11:09,565] ({main} InterpreterFactory.java[init]:154) - Interpreter livy.spark found. class=org.apache.zeppelin.livy.LivySparkInterpreter
ERROR [2017-01-08 15:11:09,565] ({main} Interpreter.java[register]:315) - Static initialization is deprecated. You should change it to use interpreter-setting.json in your jar or interpreter/{interpreter}/interpreter-setting.json
 INFO [2017-01-08 15:11:09,565] ({main} InterpreterFactory.java[init]:154) - Interpreter livy.pyspark found. class=org.apache.zeppelin.livy.LivyPySparkInterpreter
ERROR [2017-01-08 15:11:09,566] ({main} Interpreter.java[register]:315) - Static initialization is deprecated. You should change it to use interpreter-setting.json in your jar or interpreter/{interpreter}/interpreter-setting.json
 INFO [2017-01-08 15:11:09,566] ({main} InterpreterFactory.java[init]:154) - Interpreter livy.sparkr found. class=org.apache.zeppelin.livy.LivySparkRInterpreter
 INFO [2017-01-08 15:11:09,566] ({main} InterpreterFactory.java[init]:154) - Interpreter livy.sql found. class=org.apache.zeppelin.livy.LivySparkSQLInterpreter
ERROR [2017-01-08 15:11:09,581] ({main} Interpreter.java[register]:315) - Static initialization is deprecated. You should change it to use interpreter-setting.json in your jar or interpreter/{interpreter}/interpreter-setting.json
 INFO [2017-01-08 15:11:09,582] ({main} InterpreterFactory.java[init]:154) - Interpreter md.md found. class=org.apache.zeppelin.markdown.Markdown
ERROR [2017-01-08 15:11:09,601] ({main} Interpreter.java[register]:315) - Static initialization is deprecated. You should change it to use interpreter-setting.json in your jar or interpreter/{interpreter}/interpreter-setting.json
 INFO [2017-01-08 15:11:09,602] ({main} InterpreterFactory.java[init]:154) - Interpreter python.python found. class=org.apache.zeppelin.python.PythonInterpreter
ERROR [2017-01-08 15:11:09,662] ({main} Interpreter.java[register]:315) - Static initialization is deprecated. You should change it to use interpreter-setting.json in your jar or interpreter/{interpreter}/interpreter-setting.json
 INFO [2017-01-08 15:11:09,662] ({main} InterpreterFactory.java[init]:154) - Interpreter file.hdfs found. class=org.apache.zeppelin.file.HDFSFileInterpreter
ERROR [2017-01-08 15:11:09,680] ({main} Interpreter.java[register]:315) - Static initialization is deprecated. You should change it to use interpreter-setting.json in your jar or interpreter/{interpreter}/interpreter-setting.json
 INFO [2017-01-08 15:11:09,680] ({main} InterpreterFactory.java[init]:154) - Interpreter angular.angular found. class=org.apache.zeppelin.angular.AngularInterpreter
 INFO [2017-01-08 15:11:10,233] ({main} InterpreterFactory.java[init]:154) - Interpreter flink.flink found. class=org.apache.zeppelin.flink.FlinkInterpreter
 INFO [2017-01-08 15:11:10,788] ({main} InterpreterFactory.java[init]:154) - Interpreter spark.spark found. class=org.apache.zeppelin.spark.SparkInterpreter
 INFO [2017-01-08 15:11:10,805] ({main} InterpreterFactory.java[init]:154) - Interpreter spark.pyspark found. class=org.apache.zeppelin.spark.PySparkInterpreter
 INFO [2017-01-08 15:11:10,808] ({main} InterpreterFactory.java[init]:154) - Interpreter spark.r found. class=org.apache.zeppelin.spark.SparkRInterpreter
 INFO [2017-01-08 15:11:10,808] ({main} InterpreterFactory.java[init]:154) - Interpreter spark.sql found. class=org.apache.zeppelin.spark.SparkSqlInterpreter
 INFO [2017-01-08 15:11:10,809] ({main} InterpreterFactory.java[init]:154) - Interpreter spark.dep found. class=org.apache.zeppelin.spark.DepInterpreter
ERROR [2017-01-08 15:11:11,148] ({main} Interpreter.java[register]:315) - Static initialization is deprecated. You should change it to use interpreter-setting.json in your jar or interpreter/{interpreter}/interpreter-setting.json
 INFO [2017-01-08 15:11:11,148] ({main} InterpreterFactory.java[init]:154) - Interpreter lens.lens found. class=org.apache.zeppelin.lens.LensInterpreter
ERROR [2017-01-08 15:11:11,511] ({main} Interpreter.java[register]:315) - Static initialization is deprecated. You should change it to use interpreter-setting.json in your jar or interpreter/{interpreter}/interpreter-setting.json
 INFO [2017-01-08 15:11:11,511] ({main} InterpreterFactory.java[init]:154) - Interpreter alluxio.alluxio found. class=org.apache.zeppelin.alluxio.AlluxioInterpreter
 INFO [2017-01-08 15:11:11,558] ({main} InterpreterFactory.java[init]:154) - Interpreter jdbc.sql found. class=org.apache.zeppelin.jdbc.JDBCInterpreter
 INFO [2017-01-08 15:11:11,749] ({main} InterpreterFactory.java[init]:154) - Interpreter cassandra.cassandra found. class=org.apache.zeppelin.cassandra.CassandraInterpreter
ERROR [2017-01-08 15:11:12,215] ({main} Interpreter.java[register]:315) - Static initialization is deprecated. You should change it to use interpreter-setting.json in your jar or interpreter/{interpreter}/interpreter-setting.json
 INFO [2017-01-08 15:11:12,216] ({main} InterpreterFactory.java[init]:154) - Interpreter hbase.hbase found. class=org.apache.zeppelin.hbase.HbaseInterpreter
 INFO [2017-01-08 15:11:12,224] ({main} InterpreterFactory.java[init]:154) - Interpreter sh.sh found. class=org.apache.zeppelin.shell.ShellInterpreter
ERROR [2017-01-08 15:11:12,445] ({main} Interpreter.java[register]:315) - Static initialization is deprecated. You should change it to use interpreter-setting.json in your jar or interpreter/{interpreter}/interpreter-setting.json
 INFO [2017-01-08 15:11:12,445] ({main} InterpreterFactory.java[init]:154) - Interpreter elasticsearch.elasticsearch found. class=org.apache.zeppelin.elasticsearch.ElasticsearchInterpreter
ERROR [2017-01-08 15:11:12,679] ({main} Interpreter.java[register]:315) - Static initialization is deprecated. You should change it to use interpreter-setting.json in your jar or interpreter/{interpreter}/interpreter-setting.json
 INFO [2017-01-08 15:11:12,679] ({main} InterpreterFactory.java[init]:154) - Interpreter ignite.ignite found. class=org.apache.zeppelin.ignite.IgniteInterpreter
ERROR [2017-01-08 15:11:12,680] ({main} Interpreter.java[register]:315) - Static initialization is deprecated. You should change it to use interpreter-setting.json in your jar or interpreter/{interpreter}/interpreter-setting.json
 INFO [2017-01-08 15:11:12,680] ({main} InterpreterFactory.java[init]:154) - Interpreter ignite.ignitesql found. class=org.apache.zeppelin.ignite.IgniteSqlInterpreter
ERROR [2017-01-08 15:11:12,727] ({main} Interpreter.java[register]:315) - Static initialization is deprecated. You should change it to use interpreter-setting.json in your jar or interpreter/{interpreter}/interpreter-setting.json
 INFO [2017-01-08 15:11:12,728] ({main} InterpreterFactory.java[init]:154) - Interpreter psql.sql found. class=org.apache.zeppelin.postgresql.PostgreSqlInterpreter
 INFO [2017-01-08 15:11:12,812] ({main} InterpreterFactory.java[init]:154) - Interpreter bigquery.sql found. class=org.apache.zeppelin.bigquery.BigQueryInterpreter
ERROR [2017-01-08 15:11:12,858] ({main} Interpreter.java[register]:315) - Static initialization is deprecated. You should change it to use interpreter-setting.json in your jar or interpreter/{interpreter}/interpreter-setting.json
 INFO [2017-01-08 15:11:12,858] ({main} InterpreterFactory.java[init]:154) - Interpreter kylin.kylin found. class=org.apache.zeppelin.kylin.KylinInterpreter
 INFO [2017-01-08 15:11:12,893] ({main} InterpreterFactory.java[init]:218) - Interpreter setting group angular : id=2C7KBFPNG, name=angular
 INFO [2017-01-08 15:11:12,893] ({main} InterpreterFactory.java[init]:218) - Interpreter setting group flink : id=2C52X23A3, name=flink
 INFO [2017-01-08 15:11:12,893] ({main} InterpreterFactory.java[init]:218) - Interpreter setting group cassandra : id=2C8WUZYBP, name=cassandra
 INFO [2017-01-08 15:11:12,893] ({main} InterpreterFactory.java[init]:218) - Interpreter setting group alluxio : id=2C7HP3TK6, name=alluxio
 INFO [2017-01-08 15:11:12,893] ({main} InterpreterFactory.java[init]:218) - Interpreter setting group jdbc : id=2C8GG9HPV, name=jdbc
 INFO [2017-01-08 15:11:12,893] ({main} InterpreterFactory.java[init]:218) - Interpreter setting group sh : id=2C84RDMA4, name=sh
 INFO [2017-01-08 15:11:12,893] ({main} InterpreterFactory.java[init]:218) - Interpreter setting group spark : id=2C5Z49Q1H, name=spark
 INFO [2017-01-08 15:11:12,893] ({main} InterpreterFactory.java[init]:218) - Interpreter setting group file : id=2C6E58T4S, name=file
 INFO [2017-01-08 15:11:12,893] ({main} InterpreterFactory.java[init]:218) - Interpreter setting group hbase : id=2C7UBBPZZ, name=hbase
 INFO [2017-01-08 15:11:12,893] ({main} InterpreterFactory.java[init]:218) - Interpreter setting group md : id=2C5QR1RGY, name=md
 INFO [2017-01-08 15:11:12,893] ({main} InterpreterFactory.java[init]:218) - Interpreter setting group kylin : id=2C8R1QDSV, name=kylin
 INFO [2017-01-08 15:11:12,893] ({main} InterpreterFactory.java[init]:218) - Interpreter setting group lens : id=2C8RNNHNA, name=lens
 INFO [2017-01-08 15:11:12,894] ({main} InterpreterFactory.java[init]:218) - Interpreter setting group elasticsearch : id=2C8MVKTAB, name=elasticsearch
 INFO [2017-01-08 15:11:12,894] ({main} InterpreterFactory.java[init]:218) - Interpreter setting group ignite : id=2C73FVPAC, name=ignite
 INFO [2017-01-08 15:11:12,894] ({main} InterpreterFactory.java[init]:218) - Interpreter setting group psql : id=2C7ZKCCJB, name=psql
 INFO [2017-01-08 15:11:12,894] ({main} InterpreterFactory.java[init]:218) - Interpreter setting group bigquery : id=2C5977X47, name=bigquery
 INFO [2017-01-08 15:11:12,894] ({main} InterpreterFactory.java[init]:218) - Interpreter setting group python : id=2C812JJD3, name=python
 INFO [2017-01-08 15:11:12,894] ({main} InterpreterFactory.java[init]:218) - Interpreter setting group livy : id=2C4YBGVGZ, name=livy
 INFO [2017-01-08 15:11:12,924] ({main} VfsLog.java[info]:138) - Using "/tmp/vfs_cache" as temporary files store.
 INFO [2017-01-08 15:11:13,142] ({main} NotebookAuthorization.java[loadFromFile]:58) - /home/ricardo/sibd_rnd/visualization/zeppelin/conf/notebook-authorization.json
 INFO [2017-01-08 15:11:13,143] ({main} Credentials.java[loadFromFile]:71) - /home/ricardo/sibd_rnd/visualization/zeppelin/conf/credentials.json
 INFO [2017-01-08 15:11:13,171] ({main} StdSchedulerFactory.java[instantiate]:1184) - Using default implementation for ThreadExecutor
 INFO [2017-01-08 15:11:13,173] ({main} SimpleThreadPool.java[initialize]:268) - Job execution threads will use class loader of thread: main
 INFO [2017-01-08 15:11:13,203] ({main} SchedulerSignalerImpl.java[<init>]:61) - Initialized Scheduler Signaller of type: class org.quartz.core.SchedulerSignalerImpl
 INFO [2017-01-08 15:11:13,203] ({main} QuartzScheduler.java[<init>]:240) - Quartz Scheduler v.2.2.1 created.
 INFO [2017-01-08 15:11:13,204] ({main} RAMJobStore.java[initialize]:155) - RAMJobStore initialized.
 INFO [2017-01-08 15:11:13,205] ({main} QuartzScheduler.java[initialize]:305) - Scheduler meta-data: Quartz Scheduler (v2.2.1) 'DefaultQuartzScheduler' with instanceId 'NON_CLUSTERED'
  Scheduler class: 'org.quartz.core.QuartzScheduler' - running locally.
  NOT STARTED.
  Currently in standby mode.
  Number of jobs executed: 0
  Using thread pool 'org.quartz.simpl.SimpleThreadPool' - with 10 threads.
  Using job-store 'org.quartz.simpl.RAMJobStore' - which does not support persistence. and is not clustered.

 INFO [2017-01-08 15:11:13,205] ({main} StdSchedulerFactory.java[instantiate]:1339) - Quartz scheduler 'DefaultQuartzScheduler' initialized from default resource file in Quartz package: 'quartz.properties'
 INFO [2017-01-08 15:11:13,205] ({main} StdSchedulerFactory.java[instantiate]:1343) - Quartz scheduler version: 2.2.1
 INFO [2017-01-08 15:11:13,205] ({main} QuartzScheduler.java[start]:575) - Scheduler DefaultQuartzScheduler_$_NON_CLUSTERED started.
 INFO [2017-01-08 15:11:13,522] ({main} Notebook.java[<init>]:121) - Notebook indexing started...
 INFO [2017-01-08 15:11:13,765] ({main} LuceneSearch.java[addIndexDocs]:305) - Indexing 4 notebooks took 243ms
 INFO [2017-01-08 15:11:13,766] ({main} Notebook.java[<init>]:123) - Notebook indexing finished: 4 indexed in 0s
 INFO [2017-01-08 15:11:13,933] ({main} ServerImpl.java[initDestination]:94) - Setting the server's publish address to be /
 INFO [2017-01-08 15:11:14,544] ({main} ContextHandler.java[doStart]:744) - Started o.e.j.w.WebAppContext@527e5409{/,file:/home/ricardo/sibd_rnd/visualization/zeppelin/webapps/webapp/,AVAILABLE}{/home/ricardo/sibd_rnd/visualization/zeppelin/zeppelin-web-0.6.2.war}
 INFO [2017-01-08 15:11:14,548] ({main} AbstractConnector.java[doStart]:266) - Started ServerConnector@70228253{HTTP/1.1}{0.0.0.0:8090}
 INFO [2017-01-08 15:11:14,549] ({main} Server.java[doStart]:379) - Started @6894ms
 INFO [2017-01-08 15:11:14,549] ({main} ZeppelinServer.java[main]:121) - Done, zeppelin server started
 INFO [2017-01-08 15:11:16,663] ({qtp747464370-15} AbstractValidatingSessionManager.java[enableSessionValidation]:230) - Enabling session validation scheduler...
 WARN [2017-01-08 15:11:16,706] ({qtp747464370-15} SecurityRestApi.java[ticket]:86) - {"status":"OK","message":"","body":{"principal":"anonymous","ticket":"anonymous","roles":"[]"}}
 INFO [2017-01-08 15:11:16,838] ({qtp747464370-17} NotebookServer.java[onOpen]:97) - New connection from 127.0.0.1 : 38322
 INFO [2017-01-08 15:11:21,461] ({qtp747464370-15} NotebookServer.java[sendNote]:433) - New operation from 127.0.0.1 : 38322 : anonymous : GET_NOTE : 2C7K6FHJ9
 INFO [2017-01-08 15:11:24,046] ({qtp747464370-16} InterpreterFactory.java[createInterpretersForNote]:599) - Create interpreter instance spark for note 2C7K6FHJ9
 INFO [2017-01-08 15:11:24,047] ({qtp747464370-16} InterpreterFactory.java[createInterpretersForNote]:629) - Interpreter org.apache.zeppelin.spark.SparkInterpreter 212525308 created
 INFO [2017-01-08 15:11:24,048] ({qtp747464370-16} InterpreterFactory.java[createInterpretersForNote]:629) - Interpreter org.apache.zeppelin.spark.PySparkInterpreter 598820983 created
 INFO [2017-01-08 15:11:24,048] ({qtp747464370-16} InterpreterFactory.java[createInterpretersForNote]:629) - Interpreter org.apache.zeppelin.spark.SparkRInterpreter 899584627 created
 INFO [2017-01-08 15:11:24,048] ({qtp747464370-16} InterpreterFactory.java[createInterpretersForNote]:629) - Interpreter org.apache.zeppelin.spark.SparkSqlInterpreter 1478779448 created
 INFO [2017-01-08 15:11:24,048] ({qtp747464370-16} InterpreterFactory.java[createInterpretersForNote]:629) - Interpreter org.apache.zeppelin.spark.DepInterpreter 64148672 created
 INFO [2017-01-08 15:11:24,059] ({pool-1-thread-2} SchedulerFactory.java[jobStarted]:131) - Job paragraph_1483817631672_1964397806 started by scheduler org.apache.zeppelin.interpreter.remote.RemoteInterpretershared_session1858692099
 INFO [2017-01-08 15:11:24,060] ({pool-1-thread-2} Paragraph.java[jobRun]:252) - run paragraph 20170107-203351_695633006 using null org.apache.zeppelin.interpreter.LazyOpenInterpreter@caae0fc
 INFO [2017-01-08 15:11:24,068] ({pool-1-thread-2} RemoteInterpreterProcess.java[reference]:148) - Run interpreter process [/home/ricardo/sibd_rnd/visualization/zeppelin/bin/interpreter.sh, -d, /home/ricardo/sibd_rnd/visualization/zeppelin/interpreter/spark, -p, 36968, -l, /home/ricardo/sibd_rnd/visualization/zeppelin/local-repo/2C5Z49Q1H]
 INFO [2017-01-08 15:11:25,104] ({pool-1-thread-2} RemoteInterpreter.java[init]:170) - Create remote interpreter org.apache.zeppelin.spark.SparkInterpreter
 INFO [2017-01-08 15:11:25,140] ({pool-1-thread-2} RemoteInterpreter.java[pushAngularObjectRegistryToRemote]:455) - Push local angular object registry from ZeppelinServer to remote interpreter group 2C5Z49Q1H:shared_process
 INFO [2017-01-08 15:11:25,157] ({pool-1-thread-2} RemoteInterpreter.java[init]:170) - Create remote interpreter org.apache.zeppelin.spark.PySparkInterpreter
 INFO [2017-01-08 15:11:25,164] ({pool-1-thread-2} RemoteInterpreter.java[init]:170) - Create remote interpreter org.apache.zeppelin.spark.SparkRInterpreter
 INFO [2017-01-08 15:11:25,165] ({pool-1-thread-2} RemoteInterpreter.java[init]:170) - Create remote interpreter org.apache.zeppelin.spark.SparkSqlInterpreter
 INFO [2017-01-08 15:11:25,166] ({pool-1-thread-2} RemoteInterpreter.java[init]:170) - Create remote interpreter org.apache.zeppelin.spark.DepInterpreter
 INFO [2017-01-08 15:11:54,455] ({pool-1-thread-2} NotebookServer.java[afterStatusChange]:1150) - Job 20170107-203351_695633006 is finished
 INFO [2017-01-08 15:11:54,531] ({pool-1-thread-2} SchedulerFactory.java[jobFinished]:137) - Job paragraph_1483817631672_1964397806 finished by scheduler org.apache.zeppelin.interpreter.remote.RemoteInterpretershared_session1858692099
 INFO [2017-01-08 15:12:38,652] ({pool-1-thread-2} SchedulerFactory.java[jobStarted]:131) - Job paragraph_1483817631672_1964397806 started by scheduler org.apache.zeppelin.interpreter.remote.RemoteInterpretershared_session1858692099
 INFO [2017-01-08 15:12:38,652] ({pool-1-thread-2} Paragraph.java[jobRun]:252) - run paragraph 20170107-203351_695633006 using null org.apache.zeppelin.interpreter.LazyOpenInterpreter@caae0fc
 INFO [2017-01-08 15:12:39,560] ({pool-1-thread-2} NotebookServer.java[afterStatusChange]:1150) - Job 20170107-203351_695633006 is finished
 INFO [2017-01-08 15:12:39,579] ({pool-1-thread-2} SchedulerFactory.java[jobFinished]:137) - Job paragraph_1483817631672_1964397806 finished by scheduler org.apache.zeppelin.interpreter.remote.RemoteInterpretershared_session1858692099
 INFO [2017-01-08 15:12:41,728] ({pool-1-thread-3} SchedulerFactory.java[jobStarted]:131) - Job paragraph_1483817667664_1849034432 started by scheduler org.apache.zeppelin.interpreter.remote.RemoteInterpretershared_session1858692099
 INFO [2017-01-08 15:12:41,733] ({pool-1-thread-3} Paragraph.java[jobRun]:252) - run paragraph 20170107-203427_817953167 using sql org.apache.zeppelin.interpreter.LazyOpenInterpreter@58246238
 INFO [2017-01-08 15:12:42,816] ({pool-1-thread-3} NotebookServer.java[afterStatusChange]:1150) - Job 20170107-203427_817953167 is finished
 INFO [2017-01-08 15:12:42,837] ({pool-1-thread-3} SchedulerFactory.java[jobFinished]:137) - Job paragraph_1483817667664_1849034432 finished by scheduler org.apache.zeppelin.interpreter.remote.RemoteInterpretershared_session1858692099
 INFO [2017-01-08 15:13:27,469] ({pool-1-thread-2} SchedulerFactory.java[jobStarted]:131) - Job paragraph_1483817667664_1849034432 started by scheduler org.apache.zeppelin.interpreter.remote.RemoteInterpretershared_session1858692099
 INFO [2017-01-08 15:13:27,469] ({pool-1-thread-2} Paragraph.java[jobRun]:252) - run paragraph 20170107-203427_817953167 using sql org.apache.zeppelin.interpreter.LazyOpenInterpreter@58246238
 INFO [2017-01-08 15:13:27,640] ({pool-1-thread-2} NotebookServer.java[afterStatusChange]:1150) - Job 20170107-203427_817953167 is finished
 INFO [2017-01-08 15:13:27,649] ({pool-1-thread-2} SchedulerFactory.java[jobFinished]:137) - Job paragraph_1483817667664_1849034432 finished by scheduler org.apache.zeppelin.interpreter.remote.RemoteInterpretershared_session1858692099
 INFO [2017-01-08 15:13:42,089] ({pool-1-thread-4} SchedulerFactory.java[jobStarted]:131) - Job paragraph_1483817667664_1849034432 started by scheduler org.apache.zeppelin.interpreter.remote.RemoteInterpretershared_session1858692099
 INFO [2017-01-08 15:13:42,090] ({pool-1-thread-4} Paragraph.java[jobRun]:252) - run paragraph 20170107-203427_817953167 using sql org.apache.zeppelin.interpreter.LazyOpenInterpreter@58246238
 INFO [2017-01-08 15:13:42,189] ({pool-1-thread-4} NotebookServer.java[afterStatusChange]:1150) - Job 20170107-203427_817953167 is finished
 INFO [2017-01-08 15:13:42,199] ({pool-1-thread-4} SchedulerFactory.java[jobFinished]:137) - Job paragraph_1483817667664_1849034432 finished by scheduler org.apache.zeppelin.interpreter.remote.RemoteInterpretershared_session1858692099
 INFO [2017-01-08 15:21:49,090] ({qtp747464370-16} NotebookServer.java[onClose]:227) - Closed connection to 127.0.0.1 : 38322. (1001) null
 INFO [2017-01-08 15:23:05,902] ({Thread-12} ZeppelinServer.java[run]:125) - Shutting down Zeppelin Server ... 
 INFO [2017-01-08 15:23:05,931] ({Thread-12} AbstractConnector.java[doStop]:306) - Stopped ServerConnector@70228253{HTTP/1.1}{0.0.0.0:8090}
 INFO [2017-01-08 15:23:06,183] ({Thread-12} ContextHandler.java[log]:2052) - Cleaning up Shiro Environment
 INFO [2017-01-08 15:23:06,183] ({Thread-12} AbstractValidatingSessionManager.java[disableSessionValidation]:246) - Disabled session validation scheduler.
 INFO [2017-01-08 15:23:06,183] ({Thread-12} ContextHandler.java[doStop]:865) - Stopped o.e.j.w.WebAppContext@527e5409{/,file:/home/ricardo/sibd_rnd/visualization/zeppelin/webapps/webapp/,UNAVAILABLE}{/home/ricardo/sibd_rnd/visualization/zeppelin/zeppelin-web-0.6.2.war}
 INFO [2017-01-08 15:23:06,186] ({Thread-26} InterpreterGroup.java[close]:141) - Close interpreter group 2C7KBFPNG:shared_process
 INFO [2017-01-08 15:23:06,186] ({Thread-26} InterpreterGroup.java[destroy]:205) - Destroy interpreter group 2C7KBFPNG:shared_process
 INFO [2017-01-08 15:23:06,187] ({Thread-27} InterpreterGroup.java[close]:141) - Close interpreter group 2C52X23A3:shared_process
 INFO [2017-01-08 15:23:06,187] ({Thread-27} InterpreterGroup.java[destroy]:205) - Destroy interpreter group 2C52X23A3:shared_process
 INFO [2017-01-08 15:23:06,187] ({Thread-29} InterpreterGroup.java[close]:141) - Close interpreter group 2C7HP3TK6:shared_process
 INFO [2017-01-08 15:23:06,187] ({Thread-29} InterpreterGroup.java[destroy]:205) - Destroy interpreter group 2C7HP3TK6:shared_process
 INFO [2017-01-08 15:23:06,187] ({Thread-28} InterpreterGroup.java[close]:141) - Close interpreter group 2C8WUZYBP:shared_process
 INFO [2017-01-08 15:23:06,187] ({Thread-30} InterpreterGroup.java[close]:141) - Close interpreter group 2C8GG9HPV:shared_process
 INFO [2017-01-08 15:23:06,193] ({Thread-49} InterpreterGroup.java[close]:141) - Close interpreter group 2C84RDMA4:shared_process
 INFO [2017-01-08 15:23:06,188] ({Thread-43} InterpreterGroup.java[close]:141) - Close interpreter group 2C4YBGVGZ:shared_process
 INFO [2017-01-08 15:23:06,188] ({Thread-42} InterpreterGroup.java[close]:141) - Close interpreter group 2C812JJD3:shared_process
 INFO [2017-01-08 15:23:06,197] ({Thread-42} InterpreterGroup.java[destroy]:205) - Destroy interpreter group 2C812JJD3:shared_process
 INFO [2017-01-08 15:23:06,188] ({Thread-41} InterpreterGroup.java[close]:141) - Close interpreter group 2C5977X47:shared_process
 INFO [2017-01-08 15:23:06,197] ({Thread-41} InterpreterGroup.java[destroy]:205) - Destroy interpreter group 2C5977X47:shared_process
 INFO [2017-01-08 15:23:06,188] ({Thread-40} InterpreterGroup.java[close]:141) - Close interpreter group 2C7ZKCCJB:shared_process
 INFO [2017-01-08 15:23:06,188] ({Thread-39} InterpreterGroup.java[close]:141) - Close interpreter group 2C73FVPAC:shared_process
 INFO [2017-01-08 15:23:06,197] ({Thread-39} InterpreterGroup.java[destroy]:205) - Destroy interpreter group 2C73FVPAC:shared_process
 INFO [2017-01-08 15:23:06,188] ({Thread-38} InterpreterGroup.java[close]:141) - Close interpreter group 2C8MVKTAB:shared_process
 INFO [2017-01-08 15:23:06,188] ({Thread-37} InterpreterGroup.java[close]:141) - Close interpreter group 2C8RNNHNA:shared_process
 INFO [2017-01-08 15:23:06,188] ({Thread-33} InterpreterGroup.java[close]:141) - Close interpreter group 2C6E58T4S:shared_process
 INFO [2017-01-08 15:23:06,188] ({Thread-36} InterpreterGroup.java[close]:141) - Close interpreter group 2C8R1QDSV:shared_process
 INFO [2017-01-08 15:23:06,188] ({Thread-35} InterpreterGroup.java[close]:141) - Close interpreter group 2C5QR1RGY:shared_process
 INFO [2017-01-08 15:23:06,188] ({Thread-34} InterpreterGroup.java[close]:141) - Close interpreter group 2C7UBBPZZ:shared_process
 INFO [2017-01-08 15:23:06,188] ({Thread-32} InterpreterGroup.java[close]:141) - Close interpreter group 2C5Z49Q1H:shared_process
 INFO [2017-01-08 15:23:06,187] ({Thread-28} InterpreterGroup.java[destroy]:205) - Destroy interpreter group 2C8WUZYBP:shared_process
 INFO [2017-01-08 15:23:06,197] ({Thread-34} InterpreterGroup.java[destroy]:205) - Destroy interpreter group 2C7UBBPZZ:shared_process
 INFO [2017-01-08 15:23:06,197] ({Thread-35} InterpreterGroup.java[destroy]:205) - Destroy interpreter group 2C5QR1RGY:shared_process
 INFO [2017-01-08 15:23:06,197] ({Thread-36} InterpreterGroup.java[destroy]:205) - Destroy interpreter group 2C8R1QDSV:shared_process
 INFO [2017-01-08 15:23:06,197] ({Thread-33} InterpreterGroup.java[destroy]:205) - Destroy interpreter group 2C6E58T4S:shared_process
 INFO [2017-01-08 15:23:06,197] ({Thread-37} InterpreterGroup.java[destroy]:205) - Destroy interpreter group 2C8RNNHNA:shared_process
 INFO [2017-01-08 15:23:06,197] ({Thread-38} InterpreterGroup.java[destroy]:205) - Destroy interpreter group 2C8MVKTAB:shared_process
 INFO [2017-01-08 15:23:06,197] ({Thread-40} InterpreterGroup.java[destroy]:205) - Destroy interpreter group 2C7ZKCCJB:shared_process
 INFO [2017-01-08 15:23:06,197] ({Thread-43} InterpreterGroup.java[destroy]:205) - Destroy interpreter group 2C4YBGVGZ:shared_process
 INFO [2017-01-08 15:23:06,197] ({Thread-49} InterpreterGroup.java[destroy]:205) - Destroy interpreter group 2C84RDMA4:shared_process
 INFO [2017-01-08 15:23:06,196] ({Thread-30} InterpreterGroup.java[destroy]:205) - Destroy interpreter group 2C8GG9HPV:shared_process
ERROR [2017-01-08 15:23:06,286] ({Thread-14} RemoteInterpreterEventPoller.java[run]:88) - Can't get RemoteInterpreterEvent
org.apache.thrift.transport.TTransportException
	at org.apache.thrift.transport.TIOStreamTransport.read(TIOStreamTransport.java:132)
	at org.apache.thrift.transport.TTransport.readAll(TTransport.java:86)
	at org.apache.thrift.protocol.TBinaryProtocol.readAll(TBinaryProtocol.java:429)
	at org.apache.thrift.protocol.TBinaryProtocol.readI32(TBinaryProtocol.java:318)
	at org.apache.thrift.protocol.TBinaryProtocol.readMessageBegin(TBinaryProtocol.java:219)
	at org.apache.thrift.TServiceClient.receiveBase(TServiceClient.java:69)
	at org.apache.zeppelin.interpreter.thrift.RemoteInterpreterService$Client.recv_getEvent(RemoteInterpreterService.java:411)
	at org.apache.zeppelin.interpreter.thrift.RemoteInterpreterService$Client.getEvent(RemoteInterpreterService.java:399)
	at org.apache.zeppelin.interpreter.remote.RemoteInterpreterEventPoller.run(RemoteInterpreterEventPoller.java:85)
 INFO [2017-01-08 15:23:06,287] ({Thread-32} InterpreterGroup.java[destroy]:205) - Destroy interpreter group 2C5Z49Q1H:shared_process
 INFO [2017-01-08 15:23:06,289] ({Thread-32} RemoteInterpreterProcess.java[dereference]:220) - shutdown interpreter process
 INFO [2017-01-08 15:23:06,289] ({Thread-32} RemoteInterpreterProcess.java[dereference]:230) - Exception in RemoteInterpreterProcess while synchronized dereference, can safely ignore exception while client.shutdown() may terminates remote process
 INFO [2017-01-08 15:23:08,843] ({Exec Default Executor} RemoteInterpreterProcess.java[onProcessFailed]:288) - Interpreter process failed {}
org.apache.commons.exec.ExecuteException: Process exited with an error: 143 (Exit value: 143)
	at org.apache.commons.exec.DefaultExecutor.executeInternal(DefaultExecutor.java:404)
	at org.apache.commons.exec.DefaultExecutor.access$200(DefaultExecutor.java:48)
	at org.apache.commons.exec.DefaultExecutor$1.run(DefaultExecutor.java:200)
	at java.lang.Thread.run(Thread.java:745)
 INFO [2017-01-08 15:23:09,290] ({Thread-32} RemoteInterpreterProcess.java[dereference]:267) - Remote process terminated
 INFO [2017-01-08 15:23:09,290] ({Thread-12} NotebookRepoSync.java[close]:351) - Closing all notebook storages
 INFO [2017-01-08 15:23:09,291] ({Thread-12} ZeppelinServer.java[run]:133) - Bye
 INFO [2017-01-08 19:26:41,679] ({main} ZeppelinConfiguration.java[create]:98) - Load configuration from file:/home/ricardo/sibd_rnd/visualization/zeppelin/conf/zeppelin-site.xml
 INFO [2017-01-08 19:26:41,837] ({main} Log.java[initialized]:186) - Logging initialized @911ms
 INFO [2017-01-08 19:26:41,910] ({main} ZeppelinServer.java[setupWebAppContext]:266) - ZeppelinServer Webapp path: /home/ricardo/sibd_rnd/visualization/zeppelin/webapps
 INFO [2017-01-08 19:26:42,177] ({main} ZeppelinServer.java[main]:114) - Starting zeppelin server
 INFO [2017-01-08 19:26:42,178] ({main} Server.java[doStart]:327) - jetty-9.2.15.v20160210
 INFO [2017-01-08 19:26:42,271] ({main} StandardDescriptorProcessor.java[visitServlet]:297) - NO JSP Support for /, did not find org.eclipse.jetty.jsp.JettyJspServlet
 INFO [2017-01-08 19:26:42,279] ({main} ContextHandler.java[log]:2052) - Initializing Shiro environment
 INFO [2017-01-08 19:26:42,279] ({main} EnvironmentLoader.java[initEnvironment]:128) - Starting Shiro environment initialization.
 INFO [2017-01-08 19:26:42,324] ({main} EnvironmentLoader.java[initEnvironment]:141) - Shiro environment initialized in 45 ms.
ERROR [2017-01-08 19:26:42,667] ({main} Interpreter.java[register]:315) - Static initialization is deprecated. You should change it to use interpreter-setting.json in your jar or interpreter/{interpreter}/interpreter-setting.json
 INFO [2017-01-08 19:26:42,667] ({main} InterpreterFactory.java[init]:154) - Interpreter livy.spark found. class=org.apache.zeppelin.livy.LivySparkInterpreter
ERROR [2017-01-08 19:26:42,668] ({main} Interpreter.java[register]:315) - Static initialization is deprecated. You should change it to use interpreter-setting.json in your jar or interpreter/{interpreter}/interpreter-setting.json
 INFO [2017-01-08 19:26:42,668] ({main} InterpreterFactory.java[init]:154) - Interpreter livy.pyspark found. class=org.apache.zeppelin.livy.LivyPySparkInterpreter
ERROR [2017-01-08 19:26:42,668] ({main} Interpreter.java[register]:315) - Static initialization is deprecated. You should change it to use interpreter-setting.json in your jar or interpreter/{interpreter}/interpreter-setting.json
 INFO [2017-01-08 19:26:42,668] ({main} InterpreterFactory.java[init]:154) - Interpreter livy.sparkr found. class=org.apache.zeppelin.livy.LivySparkRInterpreter
 INFO [2017-01-08 19:26:42,669] ({main} InterpreterFactory.java[init]:154) - Interpreter livy.sql found. class=org.apache.zeppelin.livy.LivySparkSQLInterpreter
ERROR [2017-01-08 19:26:42,684] ({main} Interpreter.java[register]:315) - Static initialization is deprecated. You should change it to use interpreter-setting.json in your jar or interpreter/{interpreter}/interpreter-setting.json
 INFO [2017-01-08 19:26:42,684] ({main} InterpreterFactory.java[init]:154) - Interpreter md.md found. class=org.apache.zeppelin.markdown.Markdown
ERROR [2017-01-08 19:26:42,704] ({main} Interpreter.java[register]:315) - Static initialization is deprecated. You should change it to use interpreter-setting.json in your jar or interpreter/{interpreter}/interpreter-setting.json
 INFO [2017-01-08 19:26:42,704] ({main} InterpreterFactory.java[init]:154) - Interpreter python.python found. class=org.apache.zeppelin.python.PythonInterpreter
ERROR [2017-01-08 19:26:42,766] ({main} Interpreter.java[register]:315) - Static initialization is deprecated. You should change it to use interpreter-setting.json in your jar or interpreter/{interpreter}/interpreter-setting.json
 INFO [2017-01-08 19:26:42,766] ({main} InterpreterFactory.java[init]:154) - Interpreter file.hdfs found. class=org.apache.zeppelin.file.HDFSFileInterpreter
ERROR [2017-01-08 19:26:42,791] ({main} Interpreter.java[register]:315) - Static initialization is deprecated. You should change it to use interpreter-setting.json in your jar or interpreter/{interpreter}/interpreter-setting.json
 INFO [2017-01-08 19:26:42,792] ({main} InterpreterFactory.java[init]:154) - Interpreter angular.angular found. class=org.apache.zeppelin.angular.AngularInterpreter
 INFO [2017-01-08 19:26:43,386] ({main} InterpreterFactory.java[init]:154) - Interpreter flink.flink found. class=org.apache.zeppelin.flink.FlinkInterpreter
 INFO [2017-01-08 19:26:43,790] ({main} InterpreterFactory.java[init]:154) - Interpreter spark.spark found. class=org.apache.zeppelin.spark.SparkInterpreter
 INFO [2017-01-08 19:26:43,808] ({main} InterpreterFactory.java[init]:154) - Interpreter spark.pyspark found. class=org.apache.zeppelin.spark.PySparkInterpreter
 INFO [2017-01-08 19:26:43,810] ({main} InterpreterFactory.java[init]:154) - Interpreter spark.r found. class=org.apache.zeppelin.spark.SparkRInterpreter
 INFO [2017-01-08 19:26:43,811] ({main} InterpreterFactory.java[init]:154) - Interpreter spark.sql found. class=org.apache.zeppelin.spark.SparkSqlInterpreter
 INFO [2017-01-08 19:26:43,812] ({main} InterpreterFactory.java[init]:154) - Interpreter spark.dep found. class=org.apache.zeppelin.spark.DepInterpreter
ERROR [2017-01-08 19:26:44,163] ({main} Interpreter.java[register]:315) - Static initialization is deprecated. You should change it to use interpreter-setting.json in your jar or interpreter/{interpreter}/interpreter-setting.json
 INFO [2017-01-08 19:26:44,163] ({main} InterpreterFactory.java[init]:154) - Interpreter lens.lens found. class=org.apache.zeppelin.lens.LensInterpreter
ERROR [2017-01-08 19:26:44,525] ({main} Interpreter.java[register]:315) - Static initialization is deprecated. You should change it to use interpreter-setting.json in your jar or interpreter/{interpreter}/interpreter-setting.json
 INFO [2017-01-08 19:26:44,525] ({main} InterpreterFactory.java[init]:154) - Interpreter alluxio.alluxio found. class=org.apache.zeppelin.alluxio.AlluxioInterpreter
 INFO [2017-01-08 19:26:44,568] ({main} InterpreterFactory.java[init]:154) - Interpreter jdbc.sql found. class=org.apache.zeppelin.jdbc.JDBCInterpreter
 INFO [2017-01-08 19:26:44,743] ({main} InterpreterFactory.java[init]:154) - Interpreter cassandra.cassandra found. class=org.apache.zeppelin.cassandra.CassandraInterpreter
ERROR [2017-01-08 19:26:45,234] ({main} Interpreter.java[register]:315) - Static initialization is deprecated. You should change it to use interpreter-setting.json in your jar or interpreter/{interpreter}/interpreter-setting.json
 INFO [2017-01-08 19:26:45,235] ({main} InterpreterFactory.java[init]:154) - Interpreter hbase.hbase found. class=org.apache.zeppelin.hbase.HbaseInterpreter
 INFO [2017-01-08 19:26:45,251] ({main} InterpreterFactory.java[init]:154) - Interpreter sh.sh found. class=org.apache.zeppelin.shell.ShellInterpreter
ERROR [2017-01-08 19:26:45,497] ({main} Interpreter.java[register]:315) - Static initialization is deprecated. You should change it to use interpreter-setting.json in your jar or interpreter/{interpreter}/interpreter-setting.json
 INFO [2017-01-08 19:26:45,498] ({main} InterpreterFactory.java[init]:154) - Interpreter elasticsearch.elasticsearch found. class=org.apache.zeppelin.elasticsearch.ElasticsearchInterpreter
ERROR [2017-01-08 19:26:45,733] ({main} Interpreter.java[register]:315) - Static initialization is deprecated. You should change it to use interpreter-setting.json in your jar or interpreter/{interpreter}/interpreter-setting.json
 INFO [2017-01-08 19:26:45,733] ({main} InterpreterFactory.java[init]:154) - Interpreter ignite.ignite found. class=org.apache.zeppelin.ignite.IgniteInterpreter
ERROR [2017-01-08 19:26:45,734] ({main} Interpreter.java[register]:315) - Static initialization is deprecated. You should change it to use interpreter-setting.json in your jar or interpreter/{interpreter}/interpreter-setting.json
 INFO [2017-01-08 19:26:45,734] ({main} InterpreterFactory.java[init]:154) - Interpreter ignite.ignitesql found. class=org.apache.zeppelin.ignite.IgniteSqlInterpreter
ERROR [2017-01-08 19:26:45,780] ({main} Interpreter.java[register]:315) - Static initialization is deprecated. You should change it to use interpreter-setting.json in your jar or interpreter/{interpreter}/interpreter-setting.json
 INFO [2017-01-08 19:26:45,780] ({main} InterpreterFactory.java[init]:154) - Interpreter psql.sql found. class=org.apache.zeppelin.postgresql.PostgreSqlInterpreter
 INFO [2017-01-08 19:26:45,866] ({main} InterpreterFactory.java[init]:154) - Interpreter bigquery.sql found. class=org.apache.zeppelin.bigquery.BigQueryInterpreter
ERROR [2017-01-08 19:26:45,910] ({main} Interpreter.java[register]:315) - Static initialization is deprecated. You should change it to use interpreter-setting.json in your jar or interpreter/{interpreter}/interpreter-setting.json
 INFO [2017-01-08 19:26:45,910] ({main} InterpreterFactory.java[init]:154) - Interpreter kylin.kylin found. class=org.apache.zeppelin.kylin.KylinInterpreter
 INFO [2017-01-08 19:26:46,028] ({main} InterpreterFactory.java[init]:218) - Interpreter setting group angular : id=2C7KBFPNG, name=angular
 INFO [2017-01-08 19:26:46,028] ({main} InterpreterFactory.java[init]:218) - Interpreter setting group flink : id=2C52X23A3, name=flink
 INFO [2017-01-08 19:26:46,028] ({main} InterpreterFactory.java[init]:218) - Interpreter setting group cassandra : id=2C8WUZYBP, name=cassandra
 INFO [2017-01-08 19:26:46,029] ({main} InterpreterFactory.java[init]:218) - Interpreter setting group alluxio : id=2C7HP3TK6, name=alluxio
 INFO [2017-01-08 19:26:46,029] ({main} InterpreterFactory.java[init]:218) - Interpreter setting group jdbc : id=2C8GG9HPV, name=jdbc
 INFO [2017-01-08 19:26:46,029] ({main} InterpreterFactory.java[init]:218) - Interpreter setting group sh : id=2C84RDMA4, name=sh
 INFO [2017-01-08 19:26:46,029] ({main} InterpreterFactory.java[init]:218) - Interpreter setting group spark : id=2C5Z49Q1H, name=spark
 INFO [2017-01-08 19:26:46,029] ({main} InterpreterFactory.java[init]:218) - Interpreter setting group file : id=2C6E58T4S, name=file
 INFO [2017-01-08 19:26:46,029] ({main} InterpreterFactory.java[init]:218) - Interpreter setting group hbase : id=2C7UBBPZZ, name=hbase
 INFO [2017-01-08 19:26:46,029] ({main} InterpreterFactory.java[init]:218) - Interpreter setting group md : id=2C5QR1RGY, name=md
 INFO [2017-01-08 19:26:46,029] ({main} InterpreterFactory.java[init]:218) - Interpreter setting group kylin : id=2C8R1QDSV, name=kylin
 INFO [2017-01-08 19:26:46,029] ({main} InterpreterFactory.java[init]:218) - Interpreter setting group lens : id=2C8RNNHNA, name=lens
 INFO [2017-01-08 19:26:46,029] ({main} InterpreterFactory.java[init]:218) - Interpreter setting group elasticsearch : id=2C8MVKTAB, name=elasticsearch
 INFO [2017-01-08 19:26:46,029] ({main} InterpreterFactory.java[init]:218) - Interpreter setting group ignite : id=2C73FVPAC, name=ignite
 INFO [2017-01-08 19:26:46,029] ({main} InterpreterFactory.java[init]:218) - Interpreter setting group psql : id=2C7ZKCCJB, name=psql
 INFO [2017-01-08 19:26:46,029] ({main} InterpreterFactory.java[init]:218) - Interpreter setting group bigquery : id=2C5977X47, name=bigquery
 INFO [2017-01-08 19:26:46,029] ({main} InterpreterFactory.java[init]:218) - Interpreter setting group python : id=2C812JJD3, name=python
 INFO [2017-01-08 19:26:46,029] ({main} InterpreterFactory.java[init]:218) - Interpreter setting group livy : id=2C4YBGVGZ, name=livy
 INFO [2017-01-08 19:26:46,063] ({main} VfsLog.java[info]:138) - Using "/tmp/vfs_cache" as temporary files store.
 INFO [2017-01-08 19:26:46,280] ({main} NotebookAuthorization.java[loadFromFile]:58) - /home/ricardo/sibd_rnd/visualization/zeppelin/conf/notebook-authorization.json
 INFO [2017-01-08 19:26:46,281] ({main} Credentials.java[loadFromFile]:71) - /home/ricardo/sibd_rnd/visualization/zeppelin/conf/credentials.json
 INFO [2017-01-08 19:26:46,310] ({main} StdSchedulerFactory.java[instantiate]:1184) - Using default implementation for ThreadExecutor
 INFO [2017-01-08 19:26:46,313] ({main} SimpleThreadPool.java[initialize]:268) - Job execution threads will use class loader of thread: main
 INFO [2017-01-08 19:26:46,321] ({main} SchedulerSignalerImpl.java[<init>]:61) - Initialized Scheduler Signaller of type: class org.quartz.core.SchedulerSignalerImpl
 INFO [2017-01-08 19:26:46,322] ({main} QuartzScheduler.java[<init>]:240) - Quartz Scheduler v.2.2.1 created.
 INFO [2017-01-08 19:26:46,323] ({main} RAMJobStore.java[initialize]:155) - RAMJobStore initialized.
 INFO [2017-01-08 19:26:46,323] ({main} QuartzScheduler.java[initialize]:305) - Scheduler meta-data: Quartz Scheduler (v2.2.1) 'DefaultQuartzScheduler' with instanceId 'NON_CLUSTERED'
  Scheduler class: 'org.quartz.core.QuartzScheduler' - running locally.
  NOT STARTED.
  Currently in standby mode.
  Number of jobs executed: 0
  Using thread pool 'org.quartz.simpl.SimpleThreadPool' - with 10 threads.
  Using job-store 'org.quartz.simpl.RAMJobStore' - which does not support persistence. and is not clustered.

 INFO [2017-01-08 19:26:46,324] ({main} StdSchedulerFactory.java[instantiate]:1339) - Quartz scheduler 'DefaultQuartzScheduler' initialized from default resource file in Quartz package: 'quartz.properties'
 INFO [2017-01-08 19:26:46,324] ({main} StdSchedulerFactory.java[instantiate]:1343) - Quartz scheduler version: 2.2.1
 INFO [2017-01-08 19:26:46,324] ({main} QuartzScheduler.java[start]:575) - Scheduler DefaultQuartzScheduler_$_NON_CLUSTERED started.
 INFO [2017-01-08 19:26:46,580] ({main} Notebook.java[<init>]:121) - Notebook indexing started...
 INFO [2017-01-08 19:26:46,794] ({main} LuceneSearch.java[addIndexDocs]:305) - Indexing 4 notebooks took 213ms
 INFO [2017-01-08 19:26:46,794] ({main} Notebook.java[<init>]:123) - Notebook indexing finished: 4 indexed in 0s
 INFO [2017-01-08 19:26:47,018] ({main} ServerImpl.java[initDestination]:94) - Setting the server's publish address to be /
 INFO [2017-01-08 19:26:47,639] ({main} ContextHandler.java[doStart]:744) - Started o.e.j.w.WebAppContext@527e5409{/,file:/home/ricardo/sibd_rnd/visualization/zeppelin/webapps/webapp/,AVAILABLE}{/home/ricardo/sibd_rnd/visualization/zeppelin/zeppelin-web-0.6.2.war}
 INFO [2017-01-08 19:26:47,644] ({main} AbstractConnector.java[doStart]:266) - Started ServerConnector@40b6162a{HTTP/1.1}{0.0.0.0:8090}
 INFO [2017-01-08 19:26:47,644] ({main} Server.java[doStart]:379) - Started @6720ms
 INFO [2017-01-08 19:26:47,644] ({main} ZeppelinServer.java[main]:121) - Done, zeppelin server started
 INFO [2017-01-08 19:26:50,711] ({qtp747464370-19} AbstractValidatingSessionManager.java[enableSessionValidation]:230) - Enabling session validation scheduler...
 WARN [2017-01-08 19:26:50,827] ({qtp747464370-19} SecurityRestApi.java[ticket]:86) - {"status":"OK","message":"","body":{"principal":"anonymous","ticket":"anonymous","roles":"[]"}}
 INFO [2017-01-08 19:26:50,899] ({qtp747464370-16} NotebookServer.java[onOpen]:97) - New connection from 127.0.0.1 : 39750
 INFO [2017-01-08 19:26:52,394] ({qtp747464370-16} NotebookServer.java[sendNote]:433) - New operation from 127.0.0.1 : 39750 : anonymous : GET_NOTE : 2C7K6FHJ9
 INFO [2017-01-08 19:26:55,107] ({qtp747464370-16} InterpreterFactory.java[createInterpretersForNote]:599) - Create interpreter instance spark for note 2C7K6FHJ9
 INFO [2017-01-08 19:26:55,108] ({qtp747464370-16} InterpreterFactory.java[createInterpretersForNote]:629) - Interpreter org.apache.zeppelin.spark.SparkInterpreter 677338557 created
 INFO [2017-01-08 19:26:55,108] ({qtp747464370-16} InterpreterFactory.java[createInterpretersForNote]:629) - Interpreter org.apache.zeppelin.spark.PySparkInterpreter 1823853494 created
 INFO [2017-01-08 19:26:55,108] ({qtp747464370-16} InterpreterFactory.java[createInterpretersForNote]:629) - Interpreter org.apache.zeppelin.spark.SparkRInterpreter 511748734 created
 INFO [2017-01-08 19:26:55,109] ({qtp747464370-16} InterpreterFactory.java[createInterpretersForNote]:629) - Interpreter org.apache.zeppelin.spark.SparkSqlInterpreter 595244710 created
 INFO [2017-01-08 19:26:55,109] ({qtp747464370-16} InterpreterFactory.java[createInterpretersForNote]:629) - Interpreter org.apache.zeppelin.spark.DepInterpreter 1897571777 created
 INFO [2017-01-08 19:26:55,125] ({pool-1-thread-2} SchedulerFactory.java[jobStarted]:131) - Job paragraph_1483817631672_1964397806 started by scheduler org.apache.zeppelin.interpreter.remote.RemoteInterpretershared_session1609501811
 INFO [2017-01-08 19:26:55,134] ({pool-1-thread-2} Paragraph.java[jobRun]:252) - run paragraph 20170107-203351_695633006 using null org.apache.zeppelin.interpreter.LazyOpenInterpreter@285f5dbd
 INFO [2017-01-08 19:26:55,140] ({pool-1-thread-2} RemoteInterpreterProcess.java[reference]:148) - Run interpreter process [/home/ricardo/sibd_rnd/visualization/zeppelin/bin/interpreter.sh, -d, /home/ricardo/sibd_rnd/visualization/zeppelin/interpreter/spark, -p, 43081, -l, /home/ricardo/sibd_rnd/visualization/zeppelin/local-repo/2C5Z49Q1H]
 INFO [2017-01-08 19:26:56,205] ({pool-1-thread-2} RemoteInterpreter.java[init]:170) - Create remote interpreter org.apache.zeppelin.spark.SparkInterpreter
 INFO [2017-01-08 19:26:56,259] ({pool-1-thread-2} RemoteInterpreter.java[pushAngularObjectRegistryToRemote]:455) - Push local angular object registry from ZeppelinServer to remote interpreter group 2C5Z49Q1H:shared_process
 INFO [2017-01-08 19:26:56,301] ({pool-1-thread-2} RemoteInterpreter.java[init]:170) - Create remote interpreter org.apache.zeppelin.spark.PySparkInterpreter
 INFO [2017-01-08 19:26:56,308] ({pool-1-thread-2} RemoteInterpreter.java[init]:170) - Create remote interpreter org.apache.zeppelin.spark.SparkRInterpreter
 INFO [2017-01-08 19:26:56,309] ({pool-1-thread-2} RemoteInterpreter.java[init]:170) - Create remote interpreter org.apache.zeppelin.spark.SparkSqlInterpreter
 INFO [2017-01-08 19:26:56,310] ({pool-1-thread-2} RemoteInterpreter.java[init]:170) - Create remote interpreter org.apache.zeppelin.spark.DepInterpreter
 INFO [2017-01-08 19:27:21,619] ({pool-1-thread-3} SchedulerFactory.java[jobStarted]:131) - Job paragraph_1483817667664_1849034432 started by scheduler org.apache.zeppelin.interpreter.remote.RemoteInterpretershared_session1609501811
 INFO [2017-01-08 19:27:21,619] ({pool-1-thread-3} Paragraph.java[jobRun]:252) - run paragraph 20170107-203427_817953167 using sql org.apache.zeppelin.interpreter.LazyOpenInterpreter@237ab6a6
 INFO [2017-01-08 19:27:25,835] ({pool-1-thread-2} NotebookServer.java[afterStatusChange]:1150) - Job 20170107-203351_695633006 is finished
 INFO [2017-01-08 19:27:25,870] ({pool-1-thread-2} SchedulerFactory.java[jobFinished]:137) - Job paragraph_1483817631672_1964397806 finished by scheduler org.apache.zeppelin.interpreter.remote.RemoteInterpretershared_session1609501811
 INFO [2017-01-08 19:27:26,876] ({pool-1-thread-3} NotebookServer.java[afterStatusChange]:1150) - Job 20170107-203427_817953167 is finished
 INFO [2017-01-08 19:27:26,900] ({pool-1-thread-3} SchedulerFactory.java[jobFinished]:137) - Job paragraph_1483817667664_1849034432 finished by scheduler org.apache.zeppelin.interpreter.remote.RemoteInterpretershared_session1609501811
 INFO [2017-01-08 19:27:48,109] ({pool-1-thread-2} SchedulerFactory.java[jobStarted]:131) - Job paragraph_1483817667664_1849034432 started by scheduler org.apache.zeppelin.interpreter.remote.RemoteInterpretershared_session1609501811
 INFO [2017-01-08 19:27:48,111] ({pool-1-thread-2} Paragraph.java[jobRun]:252) - run paragraph 20170107-203427_817953167 using sql org.apache.zeppelin.interpreter.LazyOpenInterpreter@237ab6a6
 INFO [2017-01-08 19:27:48,300] ({pool-1-thread-2} NotebookServer.java[afterStatusChange]:1150) - Job 20170107-203427_817953167 is finished
 INFO [2017-01-08 19:27:48,319] ({pool-1-thread-2} SchedulerFactory.java[jobFinished]:137) - Job paragraph_1483817667664_1849034432 finished by scheduler org.apache.zeppelin.interpreter.remote.RemoteInterpretershared_session1609501811
 INFO [2017-01-08 19:27:54,520] ({pool-1-thread-3} SchedulerFactory.java[jobStarted]:131) - Job paragraph_1483817667664_1849034432 started by scheduler org.apache.zeppelin.interpreter.remote.RemoteInterpretershared_session1609501811
 INFO [2017-01-08 19:27:54,520] ({pool-1-thread-3} Paragraph.java[jobRun]:252) - run paragraph 20170107-203427_817953167 using sql org.apache.zeppelin.interpreter.LazyOpenInterpreter@237ab6a6
 INFO [2017-01-08 19:27:54,594] ({pool-1-thread-3} NotebookServer.java[afterStatusChange]:1150) - Job 20170107-203427_817953167 is finished
 INFO [2017-01-08 19:27:54,604] ({pool-1-thread-3} SchedulerFactory.java[jobFinished]:137) - Job paragraph_1483817667664_1849034432 finished by scheduler org.apache.zeppelin.interpreter.remote.RemoteInterpretershared_session1609501811
 INFO [2017-01-08 19:27:55,713] ({pool-1-thread-4} SchedulerFactory.java[jobStarted]:131) - Job paragraph_1483817667664_1849034432 started by scheduler org.apache.zeppelin.interpreter.remote.RemoteInterpretershared_session1609501811
 INFO [2017-01-08 19:27:55,713] ({pool-1-thread-4} Paragraph.java[jobRun]:252) - run paragraph 20170107-203427_817953167 using sql org.apache.zeppelin.interpreter.LazyOpenInterpreter@237ab6a6
 INFO [2017-01-08 19:27:55,818] ({pool-1-thread-4} NotebookServer.java[afterStatusChange]:1150) - Job 20170107-203427_817953167 is finished
 INFO [2017-01-08 19:27:55,849] ({pool-1-thread-4} SchedulerFactory.java[jobFinished]:137) - Job paragraph_1483817667664_1849034432 finished by scheduler org.apache.zeppelin.interpreter.remote.RemoteInterpretershared_session1609501811
 INFO [2017-01-08 19:28:00,774] ({pool-1-thread-2} SchedulerFactory.java[jobStarted]:131) - Job paragraph_1483817667664_1849034432 started by scheduler org.apache.zeppelin.interpreter.remote.RemoteInterpretershared_session1609501811
 INFO [2017-01-08 19:28:00,775] ({pool-1-thread-2} Paragraph.java[jobRun]:252) - run paragraph 20170107-203427_817953167 using sql org.apache.zeppelin.interpreter.LazyOpenInterpreter@237ab6a6
 INFO [2017-01-08 19:28:00,856] ({pool-1-thread-2} NotebookServer.java[afterStatusChange]:1150) - Job 20170107-203427_817953167 is finished
 INFO [2017-01-08 19:28:00,865] ({pool-1-thread-2} SchedulerFactory.java[jobFinished]:137) - Job paragraph_1483817667664_1849034432 finished by scheduler org.apache.zeppelin.interpreter.remote.RemoteInterpretershared_session1609501811
 INFO [2017-01-08 19:30:29,629] ({qtp747464370-14} NotebookServer.java[onClose]:227) - Closed connection to 127.0.0.1 : 39750. (1001) null
 WARN [2017-01-08 19:47:25,345] ({qtp747464370-14} SecurityRestApi.java[ticket]:86) - {"status":"OK","message":"","body":{"principal":"anonymous","ticket":"anonymous","roles":"[]"}}
 INFO [2017-01-08 19:47:25,378] ({qtp747464370-50} NotebookServer.java[onOpen]:97) - New connection from 127.0.0.1 : 40072
 INFO [2017-01-08 19:47:27,108] ({qtp747464370-50} NotebookServer.java[sendNote]:433) - New operation from 127.0.0.1 : 40072 : anonymous : GET_NOTE : 2C7K6FHJ9
 INFO [2017-01-08 19:47:34,626] ({pool-1-thread-5} SchedulerFactory.java[jobStarted]:131) - Job paragraph_1483817631672_1964397806 started by scheduler org.apache.zeppelin.interpreter.remote.RemoteInterpretershared_session1609501811
 INFO [2017-01-08 19:47:34,626] ({pool-1-thread-5} Paragraph.java[jobRun]:252) - run paragraph 20170107-203351_695633006 using null org.apache.zeppelin.interpreter.LazyOpenInterpreter@285f5dbd
 INFO [2017-01-08 19:47:36,011] ({pool-1-thread-5} NotebookServer.java[afterStatusChange]:1150) - Job 20170107-203351_695633006 is finished
 INFO [2017-01-08 19:47:36,033] ({pool-1-thread-5} SchedulerFactory.java[jobFinished]:137) - Job paragraph_1483817631672_1964397806 finished by scheduler org.apache.zeppelin.interpreter.remote.RemoteInterpretershared_session1609501811
 INFO [2017-01-08 19:47:41,037] ({pool-1-thread-3} SchedulerFactory.java[jobStarted]:131) - Job paragraph_1483817667664_1849034432 started by scheduler org.apache.zeppelin.interpreter.remote.RemoteInterpretershared_session1609501811
 INFO [2017-01-08 19:47:41,043] ({pool-1-thread-3} Paragraph.java[jobRun]:252) - run paragraph 20170107-203427_817953167 using sql org.apache.zeppelin.interpreter.LazyOpenInterpreter@237ab6a6
 INFO [2017-01-08 19:47:41,283] ({pool-1-thread-3} NotebookServer.java[afterStatusChange]:1150) - Job 20170107-203427_817953167 is finished
 INFO [2017-01-08 19:47:41,291] ({pool-1-thread-3} SchedulerFactory.java[jobFinished]:137) - Job paragraph_1483817667664_1849034432 finished by scheduler org.apache.zeppelin.interpreter.remote.RemoteInterpretershared_session1609501811
 INFO [2017-01-08 19:48:29,332] ({pool-1-thread-6} SchedulerFactory.java[jobStarted]:131) - Job paragraph_1483817631672_1964397806 started by scheduler org.apache.zeppelin.interpreter.remote.RemoteInterpretershared_session1609501811
 INFO [2017-01-08 19:48:29,332] ({pool-1-thread-6} Paragraph.java[jobRun]:252) - run paragraph 20170107-203351_695633006 using null org.apache.zeppelin.interpreter.LazyOpenInterpreter@285f5dbd
 INFO [2017-01-08 19:48:30,110] ({pool-1-thread-6} NotebookServer.java[afterStatusChange]:1150) - Job 20170107-203351_695633006 is finished
 INFO [2017-01-08 19:48:30,130] ({pool-1-thread-6} SchedulerFactory.java[jobFinished]:137) - Job paragraph_1483817631672_1964397806 finished by scheduler org.apache.zeppelin.interpreter.remote.RemoteInterpretershared_session1609501811
 INFO [2017-01-08 19:48:32,021] ({pool-1-thread-4} SchedulerFactory.java[jobStarted]:131) - Job paragraph_1483817667664_1849034432 started by scheduler org.apache.zeppelin.interpreter.remote.RemoteInterpretershared_session1609501811
 INFO [2017-01-08 19:48:32,025] ({pool-1-thread-4} Paragraph.java[jobRun]:252) - run paragraph 20170107-203427_817953167 using sql org.apache.zeppelin.interpreter.LazyOpenInterpreter@237ab6a6
 INFO [2017-01-08 19:48:32,188] ({pool-1-thread-4} NotebookServer.java[afterStatusChange]:1150) - Job 20170107-203427_817953167 is finished
 INFO [2017-01-08 19:48:32,195] ({pool-1-thread-4} SchedulerFactory.java[jobFinished]:137) - Job paragraph_1483817667664_1849034432 finished by scheduler org.apache.zeppelin.interpreter.remote.RemoteInterpretershared_session1609501811
 INFO [2017-01-08 19:48:45,387] ({pool-1-thread-7} SchedulerFactory.java[jobStarted]:131) - Job paragraph_1483817631672_1964397806 started by scheduler org.apache.zeppelin.interpreter.remote.RemoteInterpretershared_session1609501811
 INFO [2017-01-08 19:48:45,387] ({pool-1-thread-7} Paragraph.java[jobRun]:252) - run paragraph 20170107-203351_695633006 using null org.apache.zeppelin.interpreter.LazyOpenInterpreter@285f5dbd
 INFO [2017-01-08 19:48:46,172] ({pool-1-thread-7} NotebookServer.java[afterStatusChange]:1150) - Job 20170107-203351_695633006 is finished
 INFO [2017-01-08 19:48:46,192] ({pool-1-thread-7} SchedulerFactory.java[jobFinished]:137) - Job paragraph_1483817631672_1964397806 finished by scheduler org.apache.zeppelin.interpreter.remote.RemoteInterpretershared_session1609501811
 INFO [2017-01-08 19:48:50,323] ({pool-1-thread-2} SchedulerFactory.java[jobStarted]:131) - Job paragraph_1483817667664_1849034432 started by scheduler org.apache.zeppelin.interpreter.remote.RemoteInterpretershared_session1609501811
 INFO [2017-01-08 19:48:50,323] ({pool-1-thread-2} Paragraph.java[jobRun]:252) - run paragraph 20170107-203427_817953167 using sql org.apache.zeppelin.interpreter.LazyOpenInterpreter@237ab6a6
 INFO [2017-01-08 19:48:50,444] ({pool-1-thread-2} NotebookServer.java[afterStatusChange]:1150) - Job 20170107-203427_817953167 is finished
 INFO [2017-01-08 19:48:50,462] ({pool-1-thread-2} SchedulerFactory.java[jobFinished]:137) - Job paragraph_1483817667664_1849034432 finished by scheduler org.apache.zeppelin.interpreter.remote.RemoteInterpretershared_session1609501811
 INFO [2017-01-08 19:51:50,327] ({pool-1-thread-14} SchedulerFactory.java[jobStarted]:131) - Job paragraph_1483817631672_1964397806 started by scheduler org.apache.zeppelin.interpreter.remote.RemoteInterpretershared_session1609501811
 INFO [2017-01-08 19:51:50,327] ({pool-1-thread-14} Paragraph.java[jobRun]:252) - run paragraph 20170107-203351_695633006 using null org.apache.zeppelin.interpreter.LazyOpenInterpreter@285f5dbd
 INFO [2017-01-08 19:51:51,760] ({pool-1-thread-14} NotebookServer.java[afterStatusChange]:1150) - Job 20170107-203351_695633006 is finished
 INFO [2017-01-08 19:51:51,771] ({pool-1-thread-14} SchedulerFactory.java[jobFinished]:137) - Job paragraph_1483817631672_1964397806 finished by scheduler org.apache.zeppelin.interpreter.remote.RemoteInterpretershared_session1609501811
 INFO [2017-01-08 19:52:06,513] ({pool-1-thread-5} SchedulerFactory.java[jobStarted]:131) - Job paragraph_1483817667664_1849034432 started by scheduler org.apache.zeppelin.interpreter.remote.RemoteInterpretershared_session1609501811
 INFO [2017-01-08 19:52:06,513] ({pool-1-thread-5} Paragraph.java[jobRun]:252) - run paragraph 20170107-203427_817953167 using sql org.apache.zeppelin.interpreter.LazyOpenInterpreter@237ab6a6
 INFO [2017-01-08 19:52:06,691] ({pool-1-thread-5} NotebookServer.java[afterStatusChange]:1150) - Job 20170107-203427_817953167 is finished
 INFO [2017-01-08 19:52:06,700] ({pool-1-thread-5} SchedulerFactory.java[jobFinished]:137) - Job paragraph_1483817667664_1849034432 finished by scheduler org.apache.zeppelin.interpreter.remote.RemoteInterpretershared_session1609501811
 INFO [2017-01-08 19:52:25,863] ({pool-1-thread-9} SchedulerFactory.java[jobStarted]:131) - Job paragraph_1483817667664_1849034432 started by scheduler org.apache.zeppelin.interpreter.remote.RemoteInterpretershared_session1609501811
 INFO [2017-01-08 19:52:25,864] ({pool-1-thread-9} Paragraph.java[jobRun]:252) - run paragraph 20170107-203427_817953167 using sql org.apache.zeppelin.interpreter.LazyOpenInterpreter@237ab6a6
 INFO [2017-01-08 19:52:25,895] ({pool-1-thread-9} NotebookServer.java[afterStatusChange]:1150) - Job 20170107-203427_817953167 is finished
 INFO [2017-01-08 19:52:25,902] ({pool-1-thread-9} SchedulerFactory.java[jobFinished]:137) - Job paragraph_1483817667664_1849034432 finished by scheduler org.apache.zeppelin.interpreter.remote.RemoteInterpretershared_session1609501811
 INFO [2017-01-08 19:52:31,227] ({pool-1-thread-3} SchedulerFactory.java[jobStarted]:131) - Job paragraph_1483817667664_1849034432 started by scheduler org.apache.zeppelin.interpreter.remote.RemoteInterpretershared_session1609501811
 INFO [2017-01-08 19:52:31,228] ({pool-1-thread-3} Paragraph.java[jobRun]:252) - run paragraph 20170107-203427_817953167 using sql org.apache.zeppelin.interpreter.LazyOpenInterpreter@237ab6a6
 INFO [2017-01-08 19:52:31,322] ({pool-1-thread-3} NotebookServer.java[afterStatusChange]:1150) - Job 20170107-203427_817953167 is finished
 INFO [2017-01-08 19:52:31,345] ({pool-1-thread-3} SchedulerFactory.java[jobFinished]:137) - Job paragraph_1483817667664_1849034432 finished by scheduler org.apache.zeppelin.interpreter.remote.RemoteInterpretershared_session1609501811
 INFO [2017-01-08 19:52:47,279] ({pool-1-thread-10} SchedulerFactory.java[jobStarted]:131) - Job paragraph_1483901558810_-713166587 started by scheduler org.apache.zeppelin.interpreter.remote.RemoteInterpretershared_session1609501811
 INFO [2017-01-08 19:52:47,279] ({pool-1-thread-10} Paragraph.java[jobRun]:252) - run paragraph 20170108-195238_1505697914 using sql org.apache.zeppelin.interpreter.LazyOpenInterpreter@237ab6a6
 INFO [2017-01-08 19:52:47,352] ({pool-1-thread-10} NotebookServer.java[afterStatusChange]:1150) - Job 20170108-195238_1505697914 is finished
 INFO [2017-01-08 19:52:47,359] ({pool-1-thread-10} SchedulerFactory.java[jobFinished]:137) - Job paragraph_1483901558810_-713166587 finished by scheduler org.apache.zeppelin.interpreter.remote.RemoteInterpretershared_session1609501811
 INFO [2017-01-08 19:56:27,284] ({qtp747464370-16} NotebookServer.java[onClose]:227) - Closed connection to 127.0.0.1 : 40072. (1001) null
 WARN [2017-01-08 19:59:11,445] ({qtp747464370-50} SecurityRestApi.java[ticket]:86) - {"status":"OK","message":"","body":{"principal":"anonymous","ticket":"anonymous","roles":"[]"}}
 INFO [2017-01-08 19:59:11,490] ({qtp747464370-14} NotebookServer.java[onOpen]:97) - New connection from 127.0.0.1 : 40458
 INFO [2017-01-08 19:59:13,291] ({qtp747464370-14} NotebookServer.java[sendNote]:433) - New operation from 127.0.0.1 : 40458 : anonymous : GET_NOTE : 2C7K6FHJ9
 INFO [2017-01-08 20:04:10,649] ({qtp747464370-19} NotebookServer.java[onClose]:227) - Closed connection to 127.0.0.1 : 40458. (1001) null
 INFO [2017-01-08 20:06:16,072] ({Thread-12} ZeppelinServer.java[run]:125) - Shutting down Zeppelin Server ... 
 INFO [2017-01-08 20:06:16,116] ({Thread-12} AbstractConnector.java[doStop]:306) - Stopped ServerConnector@40b6162a{HTTP/1.1}{0.0.0.0:8090}
 INFO [2017-01-08 20:06:16,337] ({Thread-12} ContextHandler.java[log]:2052) - Cleaning up Shiro Environment
 INFO [2017-01-08 20:06:16,337] ({Thread-12} AbstractValidatingSessionManager.java[disableSessionValidation]:246) - Disabled session validation scheduler.
 INFO [2017-01-08 20:06:16,337] ({Thread-12} ContextHandler.java[doStop]:865) - Stopped o.e.j.w.WebAppContext@527e5409{/,file:/home/ricardo/sibd_rnd/visualization/zeppelin/webapps/webapp/,UNAVAILABLE}{/home/ricardo/sibd_rnd/visualization/zeppelin/zeppelin-web-0.6.2.war}
 INFO [2017-01-08 20:06:16,340] ({Thread-53} InterpreterGroup.java[close]:141) - Close interpreter group 2C52X23A3:shared_process
 INFO [2017-01-08 20:06:16,340] ({Thread-59} InterpreterGroup.java[close]:141) - Close interpreter group 2C6E58T4S:shared_process
 INFO [2017-01-08 20:06:16,340] ({Thread-59} InterpreterGroup.java[destroy]:205) - Destroy interpreter group 2C6E58T4S:shared_process
 INFO [2017-01-08 20:06:16,340] ({Thread-60} InterpreterGroup.java[close]:141) - Close interpreter group 2C7UBBPZZ:shared_process
 INFO [2017-01-08 20:06:16,340] ({Thread-60} InterpreterGroup.java[destroy]:205) - Destroy interpreter group 2C7UBBPZZ:shared_process
 INFO [2017-01-08 20:06:16,340] ({Thread-53} InterpreterGroup.java[destroy]:205) - Destroy interpreter group 2C52X23A3:shared_process
 INFO [2017-01-08 20:06:16,340] ({Thread-58} InterpreterGroup.java[close]:141) - Close interpreter group 2C5Z49Q1H:shared_process
 INFO [2017-01-08 20:06:16,340] ({Thread-55} InterpreterGroup.java[close]:141) - Close interpreter group 2C7HP3TK6:shared_process
 INFO [2017-01-08 20:06:16,341] ({Thread-55} InterpreterGroup.java[destroy]:205) - Destroy interpreter group 2C7HP3TK6:shared_process
 INFO [2017-01-08 20:06:16,340] ({Thread-57} InterpreterGroup.java[close]:141) - Close interpreter group 2C84RDMA4:shared_process
 INFO [2017-01-08 20:06:16,341] ({Thread-57} InterpreterGroup.java[destroy]:205) - Destroy interpreter group 2C84RDMA4:shared_process
 INFO [2017-01-08 20:06:16,340] ({Thread-56} InterpreterGroup.java[close]:141) - Close interpreter group 2C8GG9HPV:shared_process
 INFO [2017-01-08 20:06:16,340] ({Thread-54} InterpreterGroup.java[close]:141) - Close interpreter group 2C8WUZYBP:shared_process
 INFO [2017-01-08 20:06:16,341] ({Thread-54} InterpreterGroup.java[destroy]:205) - Destroy interpreter group 2C8WUZYBP:shared_process
 INFO [2017-01-08 20:06:16,340] ({Thread-52} InterpreterGroup.java[close]:141) - Close interpreter group 2C7KBFPNG:shared_process
 INFO [2017-01-08 20:06:16,341] ({Thread-56} InterpreterGroup.java[destroy]:205) - Destroy interpreter group 2C8GG9HPV:shared_process
 INFO [2017-01-08 20:06:16,341] ({Thread-68} InterpreterGroup.java[close]:141) - Close interpreter group 2C5977X47:shared_process
 INFO [2017-01-08 20:06:16,341] ({Thread-66} InterpreterGroup.java[close]:141) - Close interpreter group 2C7ZKCCJB:shared_process
 INFO [2017-01-08 20:06:16,341] ({Thread-61} InterpreterGroup.java[close]:141) - Close interpreter group 2C5QR1RGY:shared_process
 INFO [2017-01-08 20:06:16,341] ({Thread-65} InterpreterGroup.java[close]:141) - Close interpreter group 2C73FVPAC:shared_process
 INFO [2017-01-08 20:06:16,341] ({Thread-64} InterpreterGroup.java[close]:141) - Close interpreter group 2C8MVKTAB:shared_process
 INFO [2017-01-08 20:06:16,340] ({Thread-63} InterpreterGroup.java[close]:141) - Close interpreter group 2C8RNNHNA:shared_process
 INFO [2017-01-08 20:06:16,341] ({Thread-63} InterpreterGroup.java[destroy]:205) - Destroy interpreter group 2C8RNNHNA:shared_process
 INFO [2017-01-08 20:06:16,340] ({Thread-62} InterpreterGroup.java[close]:141) - Close interpreter group 2C8R1QDSV:shared_process
 INFO [2017-01-08 20:06:16,341] ({Thread-64} InterpreterGroup.java[destroy]:205) - Destroy interpreter group 2C8MVKTAB:shared_process
 INFO [2017-01-08 20:06:16,341] ({Thread-65} InterpreterGroup.java[destroy]:205) - Destroy interpreter group 2C73FVPAC:shared_process
 INFO [2017-01-08 20:06:16,341] ({Thread-61} InterpreterGroup.java[destroy]:205) - Destroy interpreter group 2C5QR1RGY:shared_process
 INFO [2017-01-08 20:06:16,341] ({Thread-66} InterpreterGroup.java[destroy]:205) - Destroy interpreter group 2C7ZKCCJB:shared_process
 INFO [2017-01-08 20:06:16,341] ({Thread-68} InterpreterGroup.java[destroy]:205) - Destroy interpreter group 2C5977X47:shared_process
 INFO [2017-01-08 20:06:16,342] ({Thread-71} InterpreterGroup.java[close]:141) - Close interpreter group 2C4YBGVGZ:shared_process
 INFO [2017-01-08 20:06:16,343] ({Thread-71} InterpreterGroup.java[destroy]:205) - Destroy interpreter group 2C4YBGVGZ:shared_process
 INFO [2017-01-08 20:06:16,341] ({Thread-52} InterpreterGroup.java[destroy]:205) - Destroy interpreter group 2C7KBFPNG:shared_process
 INFO [2017-01-08 20:06:16,342] ({Thread-69} InterpreterGroup.java[close]:141) - Close interpreter group 2C812JJD3:shared_process
 INFO [2017-01-08 20:06:16,341] ({Thread-62} InterpreterGroup.java[destroy]:205) - Destroy interpreter group 2C8R1QDSV:shared_process
 INFO [2017-01-08 20:06:16,343] ({Thread-69} InterpreterGroup.java[destroy]:205) - Destroy interpreter group 2C812JJD3:shared_process
ERROR [2017-01-08 20:06:16,503] ({Thread-14} RemoteInterpreterEventPoller.java[run]:88) - Can't get RemoteInterpreterEvent
org.apache.thrift.transport.TTransportException
	at org.apache.thrift.transport.TIOStreamTransport.read(TIOStreamTransport.java:132)
	at org.apache.thrift.transport.TTransport.readAll(TTransport.java:86)
	at org.apache.thrift.protocol.TBinaryProtocol.readAll(TBinaryProtocol.java:429)
	at org.apache.thrift.protocol.TBinaryProtocol.readI32(TBinaryProtocol.java:318)
	at org.apache.thrift.protocol.TBinaryProtocol.readMessageBegin(TBinaryProtocol.java:219)
	at org.apache.thrift.TServiceClient.receiveBase(TServiceClient.java:69)
	at org.apache.zeppelin.interpreter.thrift.RemoteInterpreterService$Client.recv_getEvent(RemoteInterpreterService.java:411)
	at org.apache.zeppelin.interpreter.thrift.RemoteInterpreterService$Client.getEvent(RemoteInterpreterService.java:399)
	at org.apache.zeppelin.interpreter.remote.RemoteInterpreterEventPoller.run(RemoteInterpreterEventPoller.java:85)
 INFO [2017-01-08 20:06:16,503] ({Thread-58} InterpreterGroup.java[destroy]:205) - Destroy interpreter group 2C5Z49Q1H:shared_process
 INFO [2017-01-08 20:06:16,504] ({Thread-58} RemoteInterpreterProcess.java[dereference]:220) - shutdown interpreter process
 INFO [2017-01-08 20:06:16,506] ({Thread-58} RemoteInterpreterProcess.java[dereference]:230) - Exception in RemoteInterpreterProcess while synchronized dereference, can safely ignore exception while client.shutdown() may terminates remote process
 INFO [2017-01-08 20:06:19,069] ({Exec Default Executor} RemoteInterpreterProcess.java[onProcessFailed]:288) - Interpreter process failed {}
org.apache.commons.exec.ExecuteException: Process exited with an error: 143 (Exit value: 143)
	at org.apache.commons.exec.DefaultExecutor.executeInternal(DefaultExecutor.java:404)
	at org.apache.commons.exec.DefaultExecutor.access$200(DefaultExecutor.java:48)
	at org.apache.commons.exec.DefaultExecutor$1.run(DefaultExecutor.java:200)
	at java.lang.Thread.run(Thread.java:745)
 INFO [2017-01-08 20:06:19,507] ({Thread-58} RemoteInterpreterProcess.java[dereference]:267) - Remote process terminated
 INFO [2017-01-08 20:06:19,507] ({Thread-12} NotebookRepoSync.java[close]:351) - Closing all notebook storages
 INFO [2017-01-08 20:06:19,508] ({Thread-12} ZeppelinServer.java[run]:133) - Bye
